{
  "title": "VapeSynth",
  "titleTemplate": "%s",
  "description": "Your friendly neighborhood online vape shop.",
  "openGraph": {
    "type": "website",
    "locale": "en_IE",
    "url": "https://vapesynth.com",
    "site_name": "VapeSynth"
  }
}
